<?xml version="1.0" encoding="utf-8"?>
<!-- Generator: Adobe Illustrator 26.0.1, SVG Export Plug-In . SVG Version: 6.00 Build 0)  -->
<svg version="1.1" id="Layer_1" xmlns="http://www.w3.org/2000/svg" xmlns:xlink="http://www.w3.org/1999/xlink" x="0px" y="0px"
	 viewBox="0 0 500 500" style="enable-background:new 0 0 500 500;" xml:space="preserve">
<style type="text/css">
	.st0{fill:#593D19;}
	.st1{fill:#AD754E;}
	.st2{fill:#FFC550;}
	.st3{clip-path:url(#SVGID_00000102530551584859904650000007215494563826425266_);}
	.st4{clip-path:url(#SVGID_00000142897736607582118600000011427510470901650346_);}
	.st5{clip-path:url(#SVGID_00000025425635050749755940000003302938532592476346_);}
	.st6{clip-path:url(#SVGID_00000010270198486873672420000005967829719335953050_);}
	.st7{clip-path:url(#SVGID_00000145028248534838469160000004924845175198250379_);}
	.st8{clip-path:url(#SVGID_00000161599110169228848770000005571374728406110618_);}
	.st9{fill:#EA6500;}
</style>
<path class="st0" d="M152.9,319h-35.3l7.6-133.8h22.7L152.9,319z"/>
<path class="st1" d="M179.4,390.8H80.9V262l98.5,58.1V390.8z"/>
<path class="st0" d="M238.7,319h-35.3l7.6-133.8h22.7L238.7,319z"/>
<path class="st1" d="M272.8,399.2h-98.4V270.4l98.4,58.1V399.2z"/>
<path class="st2" d="M370,253.1h-64.4l5-159.1h54.3L370,253.1z"/>
<path class="st0" d="M305.6,252.3H370l-1.1-33.2h-62.2L305.6,252.3z"/>
<path class="st1" d="M473.2,339.3h-33.4l2.5-183.1h28.4L473.2,339.3z"/>
<path class="st2" d="M439.7,339.3h33.4l-0.4-32.5h-32.6L439.7,339.3z"/>
<g>
	<defs>
		<rect id="SVGID_1_" x="418.7" y="336" width="81.3" height="127.6"/>
	</defs>
	<clipPath id="SVGID_00000045588889363412062070000001195275515691195805_">
		<use xlink:href="#SVGID_1_"  style="overflow:visible;"/>
	</clipPath>
	<g style="clip-path:url(#SVGID_00000045588889363412062070000001195275515691195805_);">
		<path class="st1" d="M419.2,336.1h80v127.5h-80V336.1z"/>
	</g>
</g>
<g>
	<defs>
		<rect id="SVGID_00000154428291019619283740000012763293211240382901_" y="385.3" width="269.3" height="78.2"/>
	</defs>
	<clipPath id="SVGID_00000129171775756585469120000009601682711989733273_">
		<use xlink:href="#SVGID_00000154428291019619283740000012763293211240382901_"  style="overflow:visible;"/>
	</clipPath>
	<g style="clip-path:url(#SVGID_00000129171775756585469120000009601682711989733273_);">
		<path class="st0" d="M0.8,386.3h267.9v77.2H0.8V386.3z"/>
	</g>
</g>
<path class="st2" d="M22.9,404h10.7v17.7H22.9V404z"/>
<path class="st2" d="M41,404h10.7v17.7H41V404z"/>
<path class="st2" d="M59.1,404h10.7v17.7H59.1V404z"/>
<path class="st2" d="M77.2,404h10.7v17.7H77.2V404z"/>
<path class="st2" d="M95.2,404H106v17.7H95.2V404z"/>
<path class="st2" d="M113.3,404h10.7v17.7h-10.7V404z"/>
<path class="st2" d="M131.4,404h10.7v17.7h-10.7V404z"/>
<path class="st2" d="M149.5,404h10.7v17.7h-10.7V404z"/>
<path class="st2" d="M167.6,404h10.7v17.7h-10.7V404z"/>
<path class="st2" d="M185.7,404h10.7v17.7h-10.7V404z"/>
<path class="st2" d="M203.8,404h10.7v17.7h-10.7V404z"/>
<path class="st2" d="M221.9,404h10.7v17.7h-10.7V404z"/>
<path class="st2" d="M240,404h10.7v17.7H240V404z"/>
<g>
	<defs>
		<rect id="SVGID_00000084515302063752267770000000209400934558914193_" x="22.7" y="432" width="25.3" height="31.6"/>
	</defs>
	<clipPath id="SVGID_00000149380159192317874000000017661986143840797855_">
		<use xlink:href="#SVGID_00000084515302063752267770000000209400934558914193_"  style="overflow:visible;"/>
	</clipPath>
	<g style="clip-path:url(#SVGID_00000149380159192317874000000017661986143840797855_);">
		<path class="st2" d="M22.7,433.3h24.1v30.3H22.7V433.3z"/>
	</g>
</g>
<g>
	<defs>
		<rect id="SVGID_00000136369751438319701690000001677192742971868298_" x="64" y="433.3" width="25.3" height="30.2"/>
	</defs>
	<clipPath id="SVGID_00000088112606815155257310000015367489934799381673_">
		<use xlink:href="#SVGID_00000136369751438319701690000001677192742971868298_"  style="overflow:visible;"/>
	</clipPath>
	<g style="clip-path:url(#SVGID_00000088112606815155257310000015367489934799381673_);">
		<path class="st2" d="M64.2,433.5h24.1v30.3H64.2V433.5z"/>
	</g>
</g>
<g>
	<defs>
		<rect id="SVGID_00000039831490381033838400000006887495307565483679_" x="105.3" y="433.3" width="25.3" height="30.2"/>
	</defs>
	<clipPath id="SVGID_00000016074652037776422590000006980148632664100248_">
		<use xlink:href="#SVGID_00000039831490381033838400000006887495307565483679_"  style="overflow:visible;"/>
	</clipPath>
	<g style="clip-path:url(#SVGID_00000016074652037776422590000006980148632664100248_);">
		<path class="st2" d="M105.8,433.5h24.1v30.3h-24.1V433.5z"/>
	</g>
</g>
<g>
	<defs>
		<rect id="SVGID_00000132805084154535497440000005798305002362857131_" x="256" y="242.7" width="169.3" height="220.9"/>
	</defs>
	<clipPath id="SVGID_00000139988964118127194740000010736301487130105522_">
		<use xlink:href="#SVGID_00000132805084154535497440000005798305002362857131_"  style="overflow:visible;"/>
	</clipPath>
	<g style="clip-path:url(#SVGID_00000139988964118127194740000010736301487130105522_);">
		<path class="st2" d="M256.4,243h167.9v220.5H256.4V243z"/>
	</g>
</g>
<path class="st9" d="M283,269.1h120.3v20.2H283V269.1z"/>
<path class="st9" d="M283,307.9h120.3v20.2H283V307.9z"/>
<path class="st9" d="M283,346.6h120.3v20.2H283V346.6z"/>
<path class="st9" d="M283,385.3h120.3v20.2H283V385.3z"/>
<path class="st9" d="M283,424h120.3v20.2H283V424z"/>
<path class="st0" d="M443.8,364.2h12v25.2h-12V364.2z"/>
<path class="st0" d="M462.8,364.2h12v25.2h-12V364.2z"/>
<path class="st0" d="M443.8,400.9h12v25.2h-12V400.9z"/>
<path class="st0" d="M462.8,400.9h12v25.2h-12V400.9z"/>
<path class="st2" d="M441.4,215.9h30l-0.4-25.9h-29.3L441.4,215.9z"/>
<path class="st2" d="M440.6,277.8h31.8l-0.5-34.1H441L440.6,277.8z"/>
<path class="st0" d="M366,126.5l-1-32.4h-54.3l-1,32.4H366z"/>
<path class="st0" d="M307.3,199.7h61l-1-30.3h-59.1L307.3,199.7z"/>
<path class="st1" d="M334.3,87.3c0,0-1.9-1.9-1.4-4.9c0.5-3,2.3-3.5,2.3-3.5s-4-8.9,5.4-12.6c9.3-3.7,11.7,4.4,11.7,4.4
	s-1.2-6.8,7.9-11.2c7.9-3.8,11.2,0.2,11.2,0.2s-4-10.5,6.1-15.2s13.8,0,13.8,0s14.2-7.9,20.8,1.2c6.5,9.1-3,16.6-3,16.6
	s4.7,0.7,4,5.6c-0.7,4.9-6.3,4.9-6.3,4.9s2.8,6.8-6.5,13.1c-9.3,6.3-19.4-3.3-19.4-3.3s-3.3,4.7-10.5,4c-7.2-0.7-7.7-6.3-7.7-6.3
	s-1.6,3.7-6.1,3.5c-4.4-0.2-5.4-4.9-5.4-4.9s-0.5,4.9-4.2,5.1c-3.7,0.2-4.9-1.6-4.9-1.6S340.4,90.8,334.3,87.3z"/>
<path class="st0" d="M196.2,327.8h13v31.6h-13V327.8z"/>
<path class="st0" d="M213.7,327.8h13v31.6h-13V327.8z"/>
<path class="st0" d="M231.1,327.8h13v31.6h-13V327.8z"/>
<path class="st0" d="M102.8,326.9h13v31.6h-13V326.9z"/>
<path class="st0" d="M120.3,326.9h13v31.6h-13V326.9z"/>
<path class="st0" d="M137.7,326.9h13v31.6h-13V326.9z"/>
<path class="st1" d="M224.1,180.3c0,0-1.4-1.4-1-3.7c0.3-2.3,1.7-2.6,1.7-2.6s-2.9-6.6,4-9.4c6.9-2.8,8.7,3.3,8.7,3.3
	s-0.9-5,5.9-8.3c5.9-2.9,8.3,0.2,8.3,0.2s-3-7.8,4.5-11.3c7.5-3.5,10.2,0,10.2,0s10.6-5.9,15.5,0.9c4.9,6.8-2.3,12.3-2.3,12.3
	s3.5,0.5,3,4.2c-0.5,3.7-4.7,3.7-4.7,3.7s2.1,5-4.9,9.7c-6.9,4.7-14.4-2.4-14.4-2.4s-2.4,3.5-7.8,3c-5.4-0.5-5.7-4.7-5.7-4.7
	s-1.2,2.8-4.5,2.6c-3.3-0.2-4-3.7-4-3.7s-0.3,3.7-3.1,3.8c-2.8,0.2-3.6-1.2-3.6-1.2S228.7,182.9,224.1,180.3z"/>
<path class="st1" d="M136.4,179.7c0,0-1.4-1.4-1-3.7c0.3-2.3,1.7-2.6,1.7-2.6s-2.9-6.6,4-9.4c6.9-2.8,8.7,3.3,8.7,3.3
	s-0.9-5,5.9-8.3c5.9-2.9,8.3,0.2,8.3,0.2s-3-7.8,4.5-11.3s10.2,0,10.2,0s10.6-5.9,15.5,0.9c4.9,6.8-2.3,12.3-2.3,12.3s3.5,0.5,3,4.2
	c-0.5,3.6-4.7,3.6-4.7,3.6s2.1,5-4.9,9.7c-6.9,4.7-14.4-2.4-14.4-2.4s-2.4,3.5-7.8,3c-5.4-0.5-5.7-4.7-5.7-4.7s-1.2,2.8-4.5,2.6
	c-3.3-0.2-4-3.7-4-3.7s-0.3,3.7-3.1,3.8c-2.8,0.2-3.6-1.2-3.6-1.2S140.9,182.3,136.4,179.7z"/>
</svg>
